R for Research in Action - 19 Logic
…
 [1]  TRUE FALSE FALSE FALSE  TRUE FALSE FALSE FALSE FALSE FALSE  TRUE FALSE

letters[1:10] %in% c("a", "e", "i", "o", "u")

 [1]  TRUE FALSE FALSE FALSE  TRUE FALSE FALSE FALSE  TRUE FALSE

So to find all flights in November and December we could write:

library(nycflights13)
library(dplyr)
data(flights)
flights |> 
  filter(month %in% c(11, 12))

# A tibble: 55,403 × 19
    year month   day dep_time sched_dep_time dep_delay arr_time sched_arr_time
   <int> <int> <int>    <int>          <int>     <dbl>    <int>          <int>
 1  2013    11     1        5           2359         6      352            345
 2  2013    11     1       35           2250       105      123           2356
 3  2013    11     1      455            500        -5      641            651
 4  2013    11     1      539            545        -6      856            827
 5  2013    11     1      542            545        -3      831            855
 6  2013    11     1      549            600       -11      912            923
 7  2013    11     1      550            600       -10      705            659
 8  2013    11     1      554            600        -6      659            701
 9  2013    11     1      554            600        -6      826            827
10  2013    11     1      554            600        -6      749            751
# ℹ 55,393 more rows
# ℹ 11 more variables: arr_delay <dbl>, carrier <chr>, flight <int>,
#   tailnum <chr>, origin <chr>, dest <chr>, air_time <dbl>, distance <dbl>,
#   hour <dbl>, minute <dbl>, time_hour <dttm>
…
[1] "-ve" "-ve" "-ve" "0"   "+ve" "+ve" "+ve" "???"

19.3 Comparisions

A very common way to create a logical vector is via a numeric comparison with <, <=, >, >=, !=, and ==. For example, the following filter finds all daytime departures that arrive roughly on time:

Example:

library(nycflights13)
flights |> 
  filter(dep_time > 600 & dep_time < 2000 & abs(arr_delay) < 20)

# A tibble: 172,286 × 19
    year month   day dep_time sched_dep_time dep_delay arr_time sched_arr_time
   <int> <int> <int>    <int>          <int>     <dbl>    <int>          <int>
 1  2013     1     1      601            600         1      844            850
 2  2013     1     1      602            610        -8      812            820
 3  2013     1     1      602            605        -3      821            805
 4  2013     1     1      606            610        -4      858            910
 5  2013     1     1      606            610        -4      837            845
 6  2013     1     1      607            607         0      858            915
 7  2013     1     1      611            600        11      945            931
 8  2013     1     1      613            610         3      925            921
 9  2013     1     1      615            615         0      833            842
10  2013     1     1      622            630        -8     1017           1014
# ℹ 172,276 more rows
# ℹ 11 more variables: arr_delay <dbl>, carrier <chr>, flight <int>,
#   tailnum <chr>, origin <chr>, dest <chr>, air_time <dbl>, distance <dbl>,
#   hour <dbl>, minute <dbl>, time_hour <dttm>

You can also use mutate() to explicitly create the underlying logical variables and add more intermediate steps to make it easier to both read your code and check that each step has been computed correctly.

Example:

flights |> 
  mutate(
    daytime = dep_time > 600 & dep_time < 2000,
    approx_ontime = abs(arr_delay) < 20,
  ) |> 
  filter(daytime & approx_ontime)

# A tibble: 172,286 × 21
    year month   day dep_time sched_dep_time dep_delay arr_time sched_arr_time
   <int> <int> <int>    <int>          <int>     <dbl>    <int>          <int>
 1  2013     1     1      601            600         1      844            850
 2  2013     1     1      602            610        -8      812            820
 3  2013     1     1      602            605        -3      821            805
 4  2013     1     1      606            610        -4      858            910
 5  2013     1     1      606            610        -4      837            845
 6  2013     1     1      607            607         0      858            915
 7  2013     1     1      611            600        11      945            931
 8  2013     1     1      613            610         3      925            921
 9  2013     1     1      615            615         0      833            842
10  2013     1     1      622            630        -8     1017           1014
# ℹ 172,276 more rows
# ℹ 13 more variables: arr_delay <dbl>, carrier <chr>, flight <int>,
#   tailnum <chr>, origin <chr>, dest <chr>, air_time <dbl>, distance <dbl>,
#   hour <dbl>, minute <dbl>, time_hour <dttm>, daytime <lgl>,
#   approx_ontime <lgl>
…
