R for Research in Action - 7 Tidy Data
…
7.4.1 Pivot Data

You’ll begin by figuring out what the underlying variables and observations are. Sometimes this is easy; other times you’ll need to consult with the people who originally generated the data. Next, you’ll pivot your data into a tidy form, with variables in the columns and observations in the rows.

tidyr provides two functions for pivoting data: pivot_longer() and pivot_wider(). We’ll first start with pivot_longer() because it’s the most common case. Let’s dive into some examples.

7.4.2 Lengthening Data

Lengthening data means increasing the number of rows and decreasing the number of columns. The inverse transformation is pivot_wider().

In this dataset, each observation is a song. The first three columns (artist, track and date.entered) are variables that describe the song. Then we have 76 columns (wk1-wk76) that describe the rank of the song in each week1. Here, the column names are one variable (the week) and the cell values are another (the rank).

tidyr::billboard

# A tibble: 317 × 79
   artist     track date.entered   wk1   wk2   wk3   wk4   wk5   wk6   wk7   wk8
   <chr>      <chr> <date>       <dbl> <dbl> <dbl> <dbl> <dbl> <dbl> <dbl> <dbl>
 1 2 Pac      Baby… 2000-02-26      87    82    72    77    87    94    99    NA
 2 2Ge+her    The … 2000-09-02      91    87    92    NA    NA    NA    NA    NA
 3 3 Doors D… Kryp… 2000-04-08      81    70    68    67    66    57    54    53
 4 3 Doors D… Loser 2000-10-21      76    76    72    69    67    65    55    59
 5 504 Boyz   Wobb… 2000-04-15      57    34    25    17    17    31    36    49
 6 98^0       Give… 2000-08-19      51    39    34    26    26    19     2     2
 7 A*Teens    Danc… 2000-07-08      97    97    96    95   100    NA    NA    NA
 8 Aaliyah    I Do… 2000-01-29      84    62    51    41    38    35    35    38
 9 Aaliyah    Try … 2000-03-18      59    53    38    28    21    18    16    14
10 Adams, Yo… Open… 2000-08-26      76    76    74    69    68    67    61    58
# ℹ 307 more rows
# ℹ 68 more variables: wk9 <dbl>, wk10 <dbl>, wk11 <dbl>, wk12 <dbl>,
#   wk13 <dbl>, wk14 <dbl>, wk15 <dbl>, wk16 <dbl>, wk17 <dbl>, wk18 <dbl>,
#   wk19 <dbl>, wk20 <dbl>, wk21 <dbl>, wk22 <dbl>, wk23 <dbl>, wk24 <dbl>,
#   wk25 <dbl>, wk26 <dbl>, wk27 <dbl>, wk28 <dbl>, wk29 <dbl>, wk30 <dbl>,
#   wk31 <dbl>, wk32 <dbl>, wk33 <dbl>, wk34 <dbl>, wk35 <dbl>, wk36 <dbl>,
#   wk37 <dbl>, wk38 <dbl>, wk39 <dbl>, wk40 <dbl>, wk41 <dbl>, wk42 <dbl>, …

To tidy this data, we’ll use pivot_longer():

tidyr::billboard |> 
  tidyr::pivot_longer(
    cols = starts_with("wk"), 
    names_to = "week", 
    values_to = "rank",
    values_drop_na = TRUE # to get rid of NAs
  )

# A tibble: 5,307 × 5
   artist  track                   date.entered week   rank
   <chr>   <chr>                   <date>       <chr> <dbl>
 1 2 Pac   Baby Don't Cry (Keep... 2000-02-26   wk1      87
 2 2 Pac   Baby Don't Cry (Keep... 2000-02-26   wk2      82
 3 2 Pac   Baby Don't Cry (Keep... 2000-02-26   wk3      72
 4 2 Pac   Baby Don't Cry (Keep... 2000-02-26   wk4      77
 5 2 Pac   Baby Don't Cry (Keep... 2000-02-26   wk5      87
 6 2 Pac   Baby Don't Cry (Keep... 2000-02-26   wk6      94
 7 2 Pac   Baby Don't Cry (Keep... 2000-02-26   wk7      99
 8 2Ge+her The Hardest Part Of ... 2000-09-02   wk1      91
 9 2Ge+her The Hardest Part Of ... 2000-09-02   wk2      87
10 2Ge+her The Hardest Part Of ... 2000-09-02   wk3      92
# ℹ 5,297 more rows
This data is now tidy, but we could make future computation a bit easier by converting values of week from character strings to numbers using mutate() and readr::parse_number(). parse_number() is a handy function that will extract the first number from a string, ignoring all other text.

billboard_longer <- tidyr::billboard |> 
  tidyr::pivot_longer(
    cols = starts_with("wk"), 
    names_to = "week", 
    values_to = "rank",
    values_drop_na = TRUE
  ) |> 
  dplyr::mutate(
    week = readr::parse_number(week)
  )
billboard_longer

# A tibble: 5,307 × 5
   artist  track                   date.entered  week  rank
   <chr>   <chr>                   <date>       <dbl> <dbl>
 1 2 Pac   Baby Don't Cry (Keep... 2000-02-26       1    87
 2 2 Pac   Baby Don't Cry (Keep... 2000-02-26       2    82
 3 2 Pac   Baby Don't Cry (Keep... 2000-02-26       3    72
 4 2 Pac   Baby Don't Cry (Keep... 2000-02-26       4    77
 5 2 Pac   Baby Don't Cry (Keep... 2000-02-26       5    87
 6 2 Pac   Baby Don't Cry (Keep... 2000-02-26       6    94
 7 2 Pac   Baby Don't Cry (Keep... 2000-02-26       7    99
 8 2Ge+her The Hardest Part Of ... 2000-09-02       1    91
 9 2Ge+her The Hardest Part Of ... 2000-09-02       2    87
10 2Ge+her The Hardest Part Of ... 2000-09-02       3    92
# ℹ 5,297 more rows

Other cases on how to deal with lenghtening data can be found here.

7.4.3 Widening data

pivot_wider() makes datasets wider by increasing columns and reducing rows and helps when one observation is spread across multiple rows.

Example:

tidyr::cms_patient_experience

# A tibble: 500 × 5
   org_pac_id org_nm                           measure_cd measure_title prf_rate
   <chr>      <chr>                            <chr>      <chr>            <dbl>
 1 0446157747 USC CARE MEDICAL GROUP INC       CAHPS_GRP… CAHPS for MI…       63
 2 0446157747 USC CARE MEDICAL GROUP INC       CAHPS_GRP… CAHPS for MI…       87
 3 0446157747 USC CARE MEDICAL GROUP INC       CAHPS_GRP… CAHPS for MI…       86
 4 0446157747 USC CARE MEDICAL GROUP INC       CAHPS_GRP… CAHPS for MI…       57
 5 0446157747 USC CARE MEDICAL GROUP INC       CAHPS_GRP… CAHPS for MI…       85
 6 0446157747 USC CARE MEDICAL GROUP INC       CAHPS_GRP… CAHPS for MI…       24
 7 0446162697 ASSOCIATION OF UNIVERSITY PHYSI… CAHPS_GRP… CAHPS for MI…       59
 8 0446162697 ASSOCIATION OF UNIVERSITY PHYSI… CAHPS_GRP… CAHPS for MI…       85
 9 0446162697 ASSOCIATION OF UNIVERSITY PHYSI… CAHPS_GRP… CAHPS for MI…       83
10 0446162697 ASSOCIATION OF UNIVERSITY PHYSI… CAHPS_GRP… CAHPS for MI…       63
# ℹ 490 more rows
…
We’ll use measure_cd as the source for our new column names for now. Instead of choosing new column names, we need to provide the existing columns that define the values (values_from) and the column name (names_from):

tidyr::cms_patient_experience |> 
  tidyr::pivot_wider(
    names_from = measure_cd,
    values_from = prf_rate
  )

# A tibble: 500 × 9
   org_pac_id org_nm           measure_title CAHPS_GRP_1 CAHPS_GRP_2 CAHPS_GRP_3
   <chr>      <chr>            <chr>               <dbl>       <dbl>       <dbl>
 1 0446157747 USC CARE MEDICA… CAHPS for MI…          63          NA          NA
 2 0446157747 USC CARE MEDICA… CAHPS for MI…          NA          87          NA
 3 0446157747 USC CARE MEDICA… CAHPS for MI…          NA          NA          86
 4 0446157747 USC CARE MEDICA… CAHPS for MI…          NA          NA          NA
 5 0446157747 USC CARE MEDICA… CAHPS for MI…          NA          NA          NA
 6 0446157747 USC CARE MEDICA… CAHPS for MI…          NA          NA          NA
 7 0446162697 ASSOCIATION OF … CAHPS for MI…          59          NA          NA
 8 0446162697 ASSOCIATION OF … CAHPS for MI…          NA          85          NA
 9 0446162697 ASSOCIATION OF … CAHPS for MI…          NA          NA          83
10 0446162697 ASSOCIATION OF … CAHPS for MI…          NA          NA          NA
# ℹ 490 more rows
# ℹ 3 more variables: CAHPS_GRP_5 <dbl>, CAHPS_GRP_8 <dbl>, CAHPS_GRP_12 <dbl>

The output doesn’t look quite right; we still seem to have multiple rows for each organization. That’s because, we also need to tell pivot_wider() which column or columns have values that uniquely identify each row; in this case those are the variables starting with “org”:

tidyr::cms_patient_experience |> 
  tidyr::pivot_wider(
    id_cols = starts_with("org"),
    names_from = measure_cd,
    values_from = prf_rate
  )

# A tibble: 95 × 8
   org_pac_id org_nm CAHPS_GRP_1 CAHPS_GRP_2 CAHPS_GRP_3 CAHPS_GRP_5 CAHPS_GRP_8
   <chr>      <chr>        <dbl>       <dbl>       <dbl>       <dbl>       <dbl>
 1 0446157747 USC C…          63          87          86          57          85
 2 0446162697 ASSOC…          59          85          83          63          88
 3 0547164295 BEAVE…          49          NA          75          44          73
 4 0749333730 CAPE …          67          84          85          65          82
 5 0840104360 ALLIA…          66          87          87          64          87
 6 0840109864 REX H…          73          87          84          67          91
 7 0840513552 SCL H…          58          83          76          58          78
 8 0941545784 GRITM…          46          86          81          54          NA
 9 1052612785 COMMU…          65          84          80          58          87
10 1254237779 OUR L…          61          NA          NA          65          NA
# ℹ 85 more rows
# ℹ 1 more variable: CAHPS_GRP_12 <dbl>
